
c Rule 1
1 0
2 0
4 0
3 0
5 0
7 0
10 0
9 0
13 0
15 0
11 0
20 0
19 0
16 0
25 0
23 0
-6 -8 0
-12 -14 0
-17 -18 0
-21 -22 0
-21 -24 0
-22 -24 0
-12 -22 0
-14 -24 0

c Rule 2
6 7 0
6 11 0
6 1 0
8 9 0
8 7 0
8 13 0
8 3 0
12 13 0
12 11 0
12 17 0
12 7 0
14 15 0
14 13 0
14 19 0
14 9 0
17 18 0
17 16 0
17 22 0
17 12 0
18 19 0
18 17 0
18 23 0
18 13 0
21 22 0
21 16 0
22 23 0
22 21 0
22 17 0
24 25 0
24 23 0
24 19 0
